<svg width="45" height="43" viewBox="0 0 45 43" fill="none" xmlns="http://www.w3.org/2000/svg">
<path d="M22.5185 0L27.7988 16.2381H44.886L31.0621 26.2738L36.3424 42.5119L22.5185 32.4762L8.69468 42.5119L13.9749 26.2738L0.151079 16.2381H17.2383L22.5185 0Z" fill="#87F54E"/>
</svg>
